{
	"info": {
		"_postman_id": "4f119855-1562-41d8-9180-367737702283",
		"name": "E-commerce Capstone 2",
		"schema": "https://schema.getpostman.com/json/collection/v2.1.0/collection.json"
	},
	"item": [
		{
			"name": "Register User",
			"request": {
				"method": "POST",
				"header": []
			},
			"response": []
		},
		{
			"name": "Login",
			"request": {
				"method": "POST",
				"header": [],
				"url": {
					"raw": "localhost:4000/users/login",
					"host": [
						"localhost"
					],
					"port": "4000",
					"path": [
						"users",
						"login"
					]
				}
			},
			"response": []
		},
		{
			"name": "Add Product",
			"request": {
				"auth": {
					"type": "bearer",
					"bearer": [
						{
							"key": "token",
							"value": "eyJhbGciOiJIUzI1NiIsInR5cCI6IkpXVCJ9.eyJpZCI6IjYzZDE0NGUzYzU2ZjY1YmU1NDY0MmVjOSIsImVtYWlsIjoiYWRtaW5AZ21haWwuY29tIiwiaXNBZG1pbiI6dHJ1ZSwiaWF0IjoxNjc0NjYwMDc0fQ.ABPA59AM-4e3lP7lH11pTuhRKrEMGFPMC8AHymgpo-Q",
							"type": "string"
						}
					]
				},
				"method": "POST",
				"header": [],
				"body": {
					"mode": "raw",
					"raw": "{\r\n    \"name\": \"RCB Shock\",\r\n    \"description\": \"Color white : 210mm\",\r\n    \"color\": \"White\",\r\n    \"price\": 1700\r\n}",
					"options": {
						"raw": {
							"language": "json"
						}
					}
				},
				"url": {
					"raw": "localhost:4000/product/addProduct",
					"host": [
						"localhost"
					],
					"port": "4000",
					"path": [
						"product",
						"addProduct"
					]
				}
			},
			"response": []
		},
		{
			"name": "Retrieve All Product",
			"request": {
				"method": "GET",
				"header": []
			},
			"response": []
		},
		{
			"name": "Retrieve All Active Products",
			"request": {
				"method": "GET",
				"header": []
			},
			"response": []
		}
	]
}